{
    "general":{
        "saved_data_folder_name":"Recorded_data/",
        "folder_tag":"indoor_no_filter",
        "update_focal_length":false,
        "calibrate_camera":false,
        "run_positioning_feedback":false,
        "calibrate_gaze":false,
        "run_gaze_tracking":false,
        "live_debug":true,
        "save_settings":true
    },
    "camera_calibration":{
        "checkerboard_dimensions":{
            "w":8,
            "h":6
        },
        "checker_size_mm":12
    },
    "gaze_calibration":{
        "calib_fixation_freq":25,
        "save_eye_imgs":true,
        "annotate_eye_imgs":true,
        "record_video":true,
        "annotate_video":true,
        "background_col":"#63506b",
        "fixation_trim_start_ms": 600,
        "fixation_trim_end_ms": 600,
        "calib_pattern_details":{
            "rows":3,
            "cols":3,
            "fixation_duration_ms":1500,
            "movement_duration_ms":800
        },
        "fixation_object_details":{
            "circle_1":{
                "col":"cyan",
                "radius_px":25
            },
            "circle_2":{
                "col":"red",
                "radius_px":25
            }
        }
    },
    "live_debug":{
        "record_video":true,
        "fps_annotate":false,
        "time_annotate":false,
        "landmark_annotate":false,
        "eye_corner_vectors_annotate":false,
        "eye_annotate":false,
        "pose_annotate":false,
        "glints_annotate":false,
        "positioning_feedback":false,
        "video_tag":"calibration_rec",
        "show_live_display":true,
        "show_eye_imgs":true,
        "save_eye_imgs":true,
        "space_save_imgs":true,
        "live_display_shrink_percentage":50
    },
    "gaze_tracking":{
        "record_video":true,
        "save_eye_imgs":true,
        "no_glints":true,
        "glint_detection_parameters":{
            "threshold_min":100,
            "threshold_max":255,
            "min_sigma":3,
            "max_sigma":30,
            "threshold":0.01,
            "exclude_border":true,
            "glint_dist_min_px":12,
            "glint_dist_max_px":23,
            "glint_tilt_error_tolerance_deg":10,
            "cutoff_border_perc":60,
            "display_glint_imgs":false,
            "display_glints_verbose":true
        },
        "face_detector_parameters":{
            "staticMode":false,
            "maxFaces":1,
            "minDetectionCon":0.6,
            "minTrackCon":0.4
        },
        "glint_gaze_coeffs":{
            "L_e_x_coeffs":[
                1115.6478405531955,
                -136.2350729657032,
                26.510574218891577,
                177.06267862880875
            ],
            "L_e_y_coeffs":[
                1067.0000033536044,
                -1.3667748393151705e-06,
                -1.2585684372456996e-06,
                -2.0774679078680927e-07
            ],
            "R_e_x_coeffs":[
                1227.32651083774,
                -15.67232037376469,
                -6.309428303391734,
                73.01149021962381
            ],
            "R_e_y_coeffs":[
                1067.0000164367839,
                -2.9982279287545315e-06,
                -1.1374225501645758e-05,
                7.223975178040628e-07
            ]
        },
        "eye_corner_gaze_coeffs":{
            "L_e_x_coeffs":[
                912.2715587343461,
                -16011.779372239454,
                829174.8629799889,
                36593.11450594978
            ],
            "L_e_y_coeffs":[
                1564.494631651107,
                1793.8060086464754,
                20652.747796136242,
                -79134.10758308697
            ],
            "R_e_x_coeffs":[
                1194.6275724550444,
                -13197.307869963424,
                212892.03714130798,
                -32003.19513190961
            ],
            "R_e_y_coeffs":[
                1894.636961800185,
                244.10040407837573,
                33666.15796918944,
                -153960.47259889
            ]
        }
    },
    "head_position_feedback":{
        "head_margins":{
            "frame_margin_inner":[
                70,
                25
            ],
            "frame_margin_outer":[
                95,
                90
            ]
        }
    },
    "hardware_setup":{
        "focal_length":2300,
        "camera_orientation":180
    }
}